{
    "name": "InputMaster",
    "maps": [
        {
            "name": "Player",
            "id": "1026d243-9469-4035-bb1d-d34551a01ea4",
            "actions": [
                {
                    "name": "Movement",
                    "type": "PassThrough",
                    "id": "fd8f3b1f-d887-4f1f-9305-f90499e55ba3",
                    "expectedControlType": "Vector2",
                    "processors": "",
                    "interactions": "",
                    "initialStateCheck": true
                },
                {
                    "name": "Mouse",
                    "type": "PassThrough",
                    "id": "014e2f8a-7903-4ada-a061-6569fee4ac55",
                    "expectedControlType": "Vector2",
                    "processors": "",
                    "interactions": "",
                    "initialStateCheck": true
                },
                {
                    "name": "Jump",
                    "type": "Button",
                    "id": "ba5f886a-16e4-4fb1-9103-7ec06ed82eb9",
                    "expectedControlType": "Button",
                    "processors": "",
                    "interactions": "",
                    "initialStateCheck": false
                },
                {
                    "name": "Sprint",
                    "type": "Button",
                    "id": "e566b42c-d3a9-410d-87a2-55bf24bce73b",
                    "expectedControlType": "Button",
                    "processors": "",
                    "interactions": "",
                    "initialStateCheck": false
                },
                {
                    "name": "Crouch",
                    "type": "Button",
                    "id": "3b1de5f3-7f3f-431d-9724-5741fdae4b6f",
                    "expectedControlType": "Button",
                    "processors": "",
                    "interactions": "",
                    "initialStateCheck": false
                },
                {
                    "name": "DodgeLeft",
                    "type": "Button",
                    "id": "dc20c84c-43ee-4635-9880-32d12aecfe3b",
                    "expectedControlType": "Button",
                    "processors": "",
                    "interactions": "",
                    "initialStateCheck": false
                },
                {
                    "name": "DodgeRight",
                    "type": "Button",
                    "id": "e70ae6d5-77db-4c47-8b7a-6242f39d68ab",
                    "expectedControlType": "Button",
                    "processors": "",
                    "interactions": "",
                    "initialStateCheck": false
                }
            ],
            "bindings": [
                {
                    "name": "MovementVec",
                    "id": "d6f40503-3915-4f8d-846b-f4ff0d43778a",
                    "path": "2DVector",
                    "interactions": "",
                    "processors": "",
                    "groups": "",
                    "action": "Movement",
                    "isComposite": true,
                    "isPartOfComposite": false
                },
                {
                    "name": "up",
                    "id": "8f6434ca-ca5e-4afd-bc2c-3154f1656ec2",
                    "path": "<Keyboard>/w",
                    "interactions": "",
                    "processors": "",
                    "groups": "",
                    "action": "Movement",
                    "isComposite": false,
                    "isPartOfComposite": true
                },
                {
                    "name": "down",
                    "id": "1f84bbae-8718-41da-9998-aee5aad9e794",
                    "path": "<Keyboard>/s",
                    "interactions": "",
                    "processors": "",
                    "groups": "",
                    "action": "Movement",
                    "isComposite": false,
                    "isPartOfComposite": true
                },
                {
                    "name": "left",
                    "id": "178a1370-ce44-43e3-b63b-3f78c82742db",
                    "path": "<Keyboard>/a",
                    "interactions": "",
                    "processors": "",
                    "groups": "",
                    "action": "Movement",
                    "isComposite": false,
                    "isPartOfComposite": true
                },
                {
                    "name": "right",
                    "id": "3e7a6529-ca90-4617-94b6-1390c52f7a94",
                    "path": "<Keyboard>/d",
                    "interactions": "",
                    "processors": "",
                    "groups": "",
                    "action": "Movement",
                    "isComposite": false,
                    "isPartOfComposite": true
                },
                {
                    "name": "",
                    "id": "339264ab-0bac-4d11-bb7e-f6f6613ca1bb",
                    "path": "<Mouse>/delta",
                    "interactions": "",
                    "processors": "",
                    "groups": "",
                    "action": "Mouse",
                    "isComposite": false,
                    "isPartOfComposite": false
                },
                {
                    "name": "",
                    "id": "fe4d053c-4cd8-4e4d-a3a6-6d1aa3fa6444",
                    "path": "<Keyboard>/space",
                    "interactions": "",
                    "processors": "",
                    "groups": "",
                    "action": "Jump",
                    "isComposite": false,
                    "isPartOfComposite": false
                },
                {
                    "name": "",
                    "id": "dedfcf16-2730-4618-9e81-bae7c54b3b5f",
                    "path": "<Keyboard>/leftCtrl",
                    "interactions": "",
                    "processors": "",
                    "groups": "",
                    "action": "Crouch",
                    "isComposite": false,
                    "isPartOfComposite": false
                },
                {
                    "name": "",
                    "id": "eb6df319-e2d6-4807-8b1e-6afa74c87db7",
                    "path": "<Keyboard>/z",
                    "interactions": "",
                    "processors": "",
                    "groups": "",
                    "action": "DodgeLeft",
                    "isComposite": false,
                    "isPartOfComposite": false
                },
                {
                    "name": "",
                    "id": "38793355-c418-4ecb-b5b2-c01d76a8008d",
                    "path": "<Keyboard>/c",
                    "interactions": "",
                    "processors": "",
                    "groups": "",
                    "action": "DodgeRight",
                    "isComposite": false,
                    "isPartOfComposite": false
                },
                {
                    "name": "",
                    "id": "4d6225cd-f49b-4f9e-a3d1-701aef2917fd",
                    "path": "<Keyboard>/leftShift",
                    "interactions": "",
                    "processors": "",
                    "groups": "",
                    "action": "Sprint",
                    "isComposite": false,
                    "isPartOfComposite": false
                }
            ]
        },
        {
            "name": "WeaponSystem",
            "id": "ffb32fdf-da8e-4758-91da-64395bffd2e4",
            "actions": [
                {
                    "name": "Slot1",
                    "type": "Button",
                    "id": "24ccb5b0-5ccb-4593-8b32-49a511db10f0",
                    "expectedControlType": "Button",
                    "processors": "",
                    "interactions": "",
                    "initialStateCheck": false
                },
                {
                    "name": "Slot2",
                    "type": "Button",
                    "id": "84cae5c6-79f7-4f9e-96ef-8e69381fe5ce",
                    "expectedControlType": "Button",
                    "processors": "",
                    "interactions": "",
                    "initialStateCheck": false
                },
                {
                    "name": "Slot3",
                    "type": "Button",
                    "id": "0627d601-decb-430b-8f10-d1402902b774",
                    "expectedControlType": "Button",
                    "processors": "",
                    "interactions": "",
                    "initialStateCheck": false
                },
                {
                    "name": "showWeapon",
                    "type": "Button",
                    "id": "80d6b8b2-5e9b-4117-9e76-29fbcd0a29d8",
                    "expectedControlType": "Button",
                    "processors": "",
                    "interactions": "",
                    "initialStateCheck": false
                }
            ],
            "bindings": [
                {
                    "name": "",
                    "id": "7533ba91-7ae1-4cfd-aba5-9ef2dd734d29",
                    "path": "<Keyboard>/g",
                    "interactions": "",
                    "processors": "",
                    "groups": "",
                    "action": "Slot1",
                    "isComposite": false,
                    "isPartOfComposite": false
                },
                {
                    "name": "",
                    "id": "23e8656a-77eb-43ba-a20e-8789af9e57bb",
                    "path": "<Keyboard>/h",
                    "interactions": "",
                    "processors": "",
                    "groups": "",
                    "action": "Slot2",
                    "isComposite": false,
                    "isPartOfComposite": false
                },
                {
                    "name": "",
                    "id": "dc83e6d0-915a-4a58-bf45-102d0698d25d",
                    "path": "<Keyboard>/j",
                    "interactions": "",
                    "processors": "",
                    "groups": "",
                    "action": "Slot3",
                    "isComposite": false,
                    "isPartOfComposite": false
                },
                {
                    "name": "",
                    "id": "4d956cea-0fae-401c-ac80-76a48faa9f1f",
                    "path": "<Keyboard>/f",
                    "interactions": "",
                    "processors": "",
                    "groups": "",
                    "action": "showWeapon",
                    "isComposite": false,
                    "isPartOfComposite": false
                }
            ]
        }
    ],
    "controlSchemes": []
}